…
## Answers to Questions

1.  In 2002, which states were observed at 7 or more locations? What
    about in 2010?

``` r
cleaned_brfss |>
  filter(year == 2002) |>
  group_by(locationabbr) |>
  # !!!!!!!!!!!!!!! unique ???
  summarize(n_location = n()) |>
  filter(n_location >= 7)
```

    ## # A tibble: 36 × 2
    ##    locationabbr n_location
    ##    <chr>             <int>
    ##  1 AZ                   10
    ##  2 CO                   20
    ##  3 CT                   35
    ##  4 DE                   15
    ##  5 FL                   35
    ##  6 GA                   15
    ##  7 HI                   20
    ##  8 ID                   10
    ##  9 IL                   15
    ## 10 IN                   10
    ## # ℹ 26 more rows

``` r
cleaned_brfss |>
  filter(year == 2010) |>
  group_by(locationabbr) |>
  # !!!!!!!!!!!!!!! unique ???
  summarize(n_location = n()) |>
  filter(n_location >= 7)
```

    ## # A tibble: 45 × 2
    ##    locationabbr n_location
    ##    <chr>             <int>
    ##  1 AL                   15
    ##  2 AR                   15
    ##  3 AZ                   15
    ##  4 CA                   60
    ##  5 CO                   35
    ##  6 CT                   25
    ##  7 DE                   15
    ##  8 FL                  205
    ##  9 GA                   20
    ## 10 HI                   20
    ## # ℹ 35 more rows
…
